[gd_resource type="ShaderMaterial" load_steps=2 format=2]

[ext_resource path="res://new_visualshader.tres" type="Shader" id=1]

[resource]

render_priority = 0
shader = ExtResource( 1 )
_sections_unfolded = [ "shader" ]

